…
``` r
df <- readxl::read_xlsx('dados/Dados R.xlsx')
df
```

    # A tibble: 299 x 12
         age anaemia creatinine_phos~ diabetes ejection_fracti~ high_blood_pres~
       <dbl>   <dbl>            <dbl>    <dbl>            <dbl>            <dbl>
     1    75       0              582        0               20                1
     2    55       0             7861        0               38                0
     3    65       0              146        0               20                0
     4    50       1              111        0               20                0
     5    65       1              160        1               20                0
     6    90       1               47        0               40                1
     7    75       1              246        0               15                0
     8    60       1              315        1               60                0
     9    65       0              157        0               65                0
    10    80       1              123        0               35                1
    # ... with 289 more rows, and 6 more variables: platelets <dbl>,
    #   serum_creatinine <dbl>, serum_sodium <dbl>, sex <dbl>, smoking <dbl>,
    #   DEATH_EVENT <dbl>
…
